arkrvu: Medicare Physician Fee Schedule – acéphale
…
northstar:::data_dict("df", "rvu")

# A tibble: 27 × 3
   var         label                                        description         
   <chr>       <chr>                                        <chr>               
 1 hcpcs       HCPCS Code                                   HCPCS Code          
 2 description Description                                  HCPCS Procedure Des…
 3 mod         Modifier                                     Diagnostic Tests, `…
 4 status      Status Code                                  Indicates if in Fee…
 5 wrvu        Work RVU                                     RVUs for Physician …
 6 nprvu       Non-Facility Practice Expense RVU            RVUs for Non-Facili…
 7 fprvu       Facility Practice Expense RVU                RVUs for Facility P…
 8 mrvu        Malpractice RVU                              RVUs for Malpractic…
 9 cf          Conversion Factor                            Multiplier that Tra…
10 nprvu_opps  Non-Facility PE Used for OPPS Payment Amount Non-Facility Practi…
# ℹ 17 more rows
…
