NPPES NPI Archives – acéphale
…
# Remove deactivated NPIs with no reactivation date
w241_deact <- w241_base |> filter(not_na(deact_date), !not_na(react_date)) |> remove_quiet()

w241_base <- fsubset(w241_base, npi %!in% w241_deact$npi)

base_g <- GRP(w241_base, ~ entity)

rsplit(w241_base, base_g) |> 
  map(remove_quiet) |> 
  setNames(GRPnames(base_g))

$I
# A tibble: 15,267 × 13
   npi        entity prefix first_name middle_name last_name   suffix credential
   <chr>      <chr>  <chr>  <chr>      <chr>       <chr>       <chr>  <chr>     
 1 1912620808 I      <NA>   DEIDRE     <NA>        HAMILTON    <NA>   <NA>      
 2 1518543511 I      <NA>   VANESSA    <NA>        CHAMBERS    <NA>   RN        
 3 1619688645 I      <NA>   DESTINY    RENEE       BARNETT     <NA>   AGACNP-BC 
 4 1437575206 I      <NA>   MICHELE    <NA>        WHITE       <NA>   PHD LLP L…
 5 1053912162 I      MS     CHANEL     MARIE       POOLE       <NA>   LMT       
 6 1265752158 I      <NA>   LIVIA      S           MACHADO, R… <NA>   <NA>      
 7 1609131515 I      <NA>   EYAD       <NA>        ALDAAS      <NA>   MD        
 8 1750841870 I      <NA>   TAM        T           TRAN        <NA>   MD        
 9 1942708748 I      <NA>   WINFORD    <NA>        PALMA       <NA>   CRNA      
10 1255864583 I      <NA>   GWENDOLYN  <NA>        WILSON      <NA>   LMHC, ATR 
# ℹ 15,257 more rows
# ℹ 5 more variables: cert_date <date>, enum_date <date>, deact_date <date>,
#   react_date <date>, sole_prop <chr>

$O
# A tibble: 3,917 × 9
   npi    entity org_parent org_prov cert_date  enum_date  deact_date react_date
   <chr>  <chr>  <chr>      <chr>    <date>     <date>     <date>     <date>    
 1 19527… O      <NA>       WHITE B… 2024-01-01 2014-01-31 NA         NA        
 2 15489… O      <NA>       MORGAN … 2022-10-04 2021-10-29 NA         NA        
 3 12955… O      <NA>       KENDRA … 2023-09-26 2024-01-01 NA         NA        
 4 13864… O      <NA>       ULYSSES… 2023-09-19 2024-01-01 NA         NA        
 5 15581… O      <NA>       RETHINK… 2023-12-21 2024-01-01 NA         NA        
 6 18218… O      <NA>       AURORA … 2023-12-28 2024-01-01 NA         NA        
 7 16490… O      <NA>       PULSE U… 2023-12-27 2024-01-01 NA         NA        
 8 12753… O      <NA>       NVR & S… 2023-12-30 2024-01-01 NA         NA        
 9 13561… O      <NA>       HEBKRAM… 2023-12-30 2024-01-01 NA         NA        
10 15086… O      <NA>       HYPNOSI… 2023-12-30 2024-01-01 NA         NA        
# ℹ 3,907 more rows
# ℹ 1 more variable: org_subpart <chr>
…
# Combine all address matches
w241_add <- rowbind(w241_exact, w241_fax, w241_phone, w241_piv)

add_g <- GRP(w241_add, ~ entity)

rsplit(w241_add, add_g) |> 
  map(remove_quiet) |> 
  setNames(GRPnames(add_g))

$I
# A tibble: 22,883 × 10
   npi        entity purpose address       city  state zip   country phone fax  
   <chr>      <chr>  <chr>   <chr>         <chr> <chr> <chr> <chr>   <chr> <chr>
 1 1437575206 I      MP      3840 PACKARD… ANN … MI    4810… US      (734… (734…
 2 1477895621 I      MP      3144 SANTA A… EL M… CA    9173… US      (626… (626…
 3 1346019486 I      MP      57 TOWNSHIP … CHES… OH    4561… US      (740… (740…
 4 1265201206 I      MP      822 LOVELACE… BREW… AL    3642… US      (251… (800…
 5 1447029483 I      MP      350 FAIRWAY … DEER… FL    3344… US      (877… (866…
 6 1295504249 I      MP      1550 N 115TH… SEAT… WA    9813… US      (206… (206…
 7 1073382024 I      MP      401 16TH ST … ROCH… MN    5590… US      (507… (507…
 8 1639948698 I      MP      920 SARATOGA… SAN … CA    9512… US      (408… (408…
 9 1508635574 I      MP      14725 SE RHO… PORT… OR    9723… US      (971… (971…
10 1932978905 I      MP      3801 KELL BL… WICH… TX    7630… US      (940… (940…
# ℹ 22,873 more rows

$O
# A tibble: 5,839 × 10
   npi        entity purpose address       city  state zip   country phone fax  
   <chr>      <chr>  <chr>   <chr>         <chr> <chr> <chr> <chr>   <chr> <chr>
 1 1548924087 O      MP      46 GRAMATAN … MOUN… NY    1055… US      (295… (646…
 2 1205605342 O      MP      7610 CARROLL… TAKO… MD    2091… US      (301… (301…
 3 1114796257 O      MP      6510 KENILWO… RIVE… MD    2073… US      (301… (301…
 4 1902675945 O      MP      2585 PACIFIC… TORR… CA    9050… US      (424… (310…
 5 1538938576 O      MP      10751 W ROWE… PEOR… AZ    8538… US      (623… (623…
 6 1568231512 O      MP      1121 FIRECRA… JUST… TX    7624… US      (940… (940…
 7 1912776964 O      MP      3760 CURTIS … COCOA FL    3292… US      (321… (321…
 8 1306615364 O      MP      350 FAIRWAY … DEER… FL    3344… US      (877… (866…
 9 1336918390 O      MP      240 E GARRIS… GAST… NC    2805… US      (980… (980…
10 1649049610 O      MP      6751 N SUNSE… GLEN… AZ    8530… US      (775… (702…
# ℹ 5,829 more rows
…
w241_tax <- join(
  wk_2024_01_01$taxonomy[c("npi", "taxonomy_code", "taxonomy_group", "taxonomy_primary")], 
  w241_base[c("npi", "entity")], 
  on = "npi", 
  verbose = 0) |> 
  fsubset(npi %!in% w241_deact$npi)

tax_g <- GRP(w241_tax, ~ entity)

rsplit(w241_tax, tax_g) |> 
  map(remove_quiet) |> 
  setNames(GRPnames(tax_g))

$I
# A tibble: 21,532 × 5
   npi        taxonomy_code taxonomy_group taxonomy_primary entity
   <chr>      <chr>         <chr>          <fct>            <chr> 
 1 1003009861 207RC0000X    <NA>           Y                I     
 2 1003013137 363AM0700X    <NA>           Y                I     
 3 1003013137 363AM0700X    <NA>           N                I     
 4 1003018060 106H00000X    <NA>           Y                I     
 5 1003047531 207L00000X    <NA>           Y                I     
 6 1003047531 390200000X    <NA>           N                I     
 7 1003047531 207L00000X    <NA>           N                I     
 8 1003047531 207L00000X    <NA>           N                I     
 9 1003052903 2084P0800X    <NA>           Y                I     
10 1003063173 208G00000X    <NA>           Y                I     
# ℹ 21,522 more rows

$O
# A tibble: 6,603 × 5
   npi        taxonomy_code taxonomy_group taxonomy_primary entity
   <chr>      <chr>         <chr>          <fct>            <chr> 
 1 1003096488 261Q00000X    <NA>           Y                O     
 2 1003196072 3416L0300X    <NA>           Y                O     
 3 1003199829 207YS0123X    193400000X     Y                O     
 4 1003200874 253Z00000X    <NA>           Y                O     
 5 1003200874 251E00000X    <NA>           N                O     
 6 1003330226 251E00000X    <NA>           Y                O     
 7 1003330226 251J00000X    <NA>           N                O     
 8 1003337734 324500000X    <NA>           Y                O     
 9 1003407230 261QM1300X    <NA>           Y                O     
10 1003407230 101Y00000X    193200000X     N                O     
# ℹ 6,593 more rows
…
w241_lic <- join(
  wk_2024_01_01$taxonomy[c("npi", "license_number", "license_state")], 
  w241_base[c("npi", "entity")], 
  on = "npi", 
  verbose = 0) |> 
  fsubset(npi %!in% w241_deact$npi)

lic_g <- GRP(w241_lic, ~ entity)

rsplit(w241_lic, lic_g) |> 
  map(remove_quiet) |> 
  setNames(GRPnames(lic_g))

$I
# A tibble: 21,532 × 4
   npi        license_number license_state entity
   <chr>      <chr>          <chr>         <chr> 
 1 1003009861 45263          AZ            I     
 2 1003013137 <NA>           MN            I     
 3 1003013137 4354           WI            I     
 4 1003018060 959            NV            I     
 5 1003047531 116063         CA            I     
 6 1003047531 <NA>           CA            I     
 7 1003047531 30135          OK            I     
 8 1003047531 MD60681697     WA            I     
 9 1003052903 087968         NY            I     
10 1003063173 5499           OK            I     
# ℹ 21,522 more rows

$O
# A tibble: 6,603 × 4
   npi        license_number license_state entity
   <chr>      <chr>          <chr>         <chr> 
 1 1003096488 12-296         MS            O     
 2 1003196072 23-255         OH            O     
 3 1003199829 10000          ND            O     
 4 1003200874 <NA>           <NA>          O     
 5 1003200874 HHA201205      NE            O     
 6 1003330226 <NA>           <NA>          O     
 7 1003330226 <NA>           <NA>          O     
 8 1003337734 <NA>           <NA>          O     
 9 1003407230 <NA>           <NA>          O     
10 1003407230 <NA>           <NA>          O     
# ℹ 6,593 more rows
…
w241_id <- join(
  wk_2024_01_01$identifier, 
  w241_base[c("npi", "entity")], 
  on = "npi", 
  verbose = 0) |> 
  fsubset(npi %!in% w241_deact$npi)

id_g <- GRP(w241_id, ~ entity)

rsplit(w241_id, id_g) |> 
  map(remove_quiet) |> 
  setNames(GRPnames(id_g))

$I
# A tibble: 3,068 × 6
   npi        other_id   other_id_code other_id_state other_id_issuer     entity
   <chr>      <chr>      <chr>         <chr>          <chr>               <chr> 
 1 1942708748 390200000X 01            NC             NC                  I     
 2 1003685140 3496       01            NH             STATE OF NEW HAMPS… I     
 3 1134998198 1194322628 05            MI             <NA>                I     
 4 1578544367 10007752   05            TX             <NA>                I     
 5 1578544367 152031401  05            TX             <NA>                I     
 6 1578544367 152028001  05            TX             <NA>                I     
 7 1316936222 4160095    01            TN             BLUE CROSS          I     
 8 1316936222 1053635    05            LA             <NA>                I     
 9 1316936222 087281     05            AZ             <NA>                I     
10 1316936222 3000540    05            TN             <NA>                I     
# ℹ 3,058 more rows

$O
# A tibble: 1,316 × 6
   npi        other_id   other_id_code other_id_state other_id_issuer     entity
   <chr>      <chr>      <chr>         <chr>          <chr>               <chr> 
 1 1417726456 0155098    05            OH             <NA>                O     
 2 1225765241 U5083      01            TX             TEXAS MEDICAL LICE… O     
 3 1689443665 1417266396 05            NY             <NA>                O     
 4 1255611539 014469     01            TX             TEXAS HCSSA LICENSE O     
 5 1508824574 890596700  05            FL             <NA>                O     
 6 1750958104 1386940575 05            WI             <NA>                O     
 7 1982294732 250000218  05            NV             <NA>                O     
 8 1891209284 U300404468 01            RI             MEDICARE PTAN       O     
 9 1730729385 1952817926 01            <NA>           ORGANIZATIONAL NPI  O     
10 1730729385 1043526098 01            <NA>           NPI                 O     
# ℹ 1,306 more rows
…
w241_oth <- join(
  wk_2024_01_01$other, 
  w241_base[c("npi", "entity")], 
  on = "npi", 
  verbose = 0) |> 
  fsubset(npi %!in% w241_deact$npi)

oth_g <- GRP(w241_oth, ~ entity)

rsplit(w241_oth, oth_g) |> 
  map(remove_quiet) |> 
  setNames(GRPnames(oth_g))

$I
# A tibble: 1,221 × 9
   npi        other_prefix other_first other_middle other_last other_last_type
   <chr>      <chr>        <chr>       <chr>        <chr>      <chr>          
 1 1255864583 <NA>         GWEN        <NA>         WILSON     2              
 2 1659140796 <NA>         KATELIN     LEE ANN      BOYER      1              
 3 1184493223 <NA>         AESHA       ISHWARBHAI   PATEL      5              
 4 1437928579 <NA>         TREVA       JO           MOYA       1              
 5 1881463826 <NA>         AMANDA      RENEE        SCHELLHORN 1              
 6 1871362814 <NA>         BRITTANY    C            DARNELL    1              
 7 1770352718 <NA>         PEBBLES     MAURINE      YEE        5              
 8 1497524441 <NA>         CARING      FOR          MAMAS      2              
 9 1033988084 <NA>         JANINE      LISSETT      LESSLEY    1              
10 1487423430 <NA>         <NA>        <NA>         <NA>       2              
# ℹ 1,211 more rows
# ℹ 3 more variables: other_suffix <chr>, other_credential <chr>, entity <chr>

$O
# A tibble: 1,125 × 4
   npi        other_org_name                            other_org_type entity
   <chr>      <chr>                                     <chr>          <chr> 
 1 1548924087 MORGAN HEART PLLC                         4              O     
 2 1538845474 SRS-LA MIRADA, LLC                        3              O     
 3 1477337988 RISING SUN DERMATOLOGY & COSMETICS CENTER 3              O     
 4 1447567391 UNITED PLUS HOME HEALTH LLC               3              O     
 5 1841442092 PALOMA HOME HEALTHCARE                    3              O     
 6 1508824574 THE ALFANO CENTER                         3              O     
 7 1295004455 MAXSERVE HOSPICE                          3              O     
 8 1790271476 MAXSERVE HOSPICE                          3              O     
 9 1740833243 SUMMIT HEALTHCARE                         3              O     
10 1427561562 J&CO CHIROPRACTIC                         3              O     
# ℹ 1,115 more rows

1.6 Authorized

w241_ao <- join(
  wk_2024_01_01$authorized, 
  w241_base[c("npi", "entity")], 
  on = "npi", 
  verbose = 0) |> 
  fsubset(npi %!in% w241_deact$npi)

w241_ao

# A tibble: 3,917 × 10
   npi     ao_prefix ao_first ao_middle ao_last ao_suffix ao_credential ao_title
 * <chr>   <chr>     <chr>    <chr>     <chr>   <chr>     <chr>         <chr>   
 1 195272… <NA>      MICHELE  <NA>      WHITE   <NA>      PHD, LLP, LPC OWNER   
 2 154892… <NA>      TANESHA  <NA>      MORGAN  <NA>      LCSW          CEO     
 3 129550… <NA>      KENDRA   <NA>      TAYLOR  <NA>      <NA>          OWNER   
 4 138641… <NA>      MELISSA  <NA>      DELLA … <NA>      LCSW          OWNER   
 5 155813… MRS.      MALYNDI  R.        WEST    <NA>      <NA>          OWNER &…
 6 182186… <NA>      AURORA   CANE      HOYLE   <NA>      FNP-BC        PRIMARY…
 7 164904… DR.       ASMITA   <NA>      PATEL   <NA>      MD            SECRETA…
 8 127530… MR.       RANGANA… <NA>      NARASI… <NA>      <NA>          MANAGER…
 9 135611… DR.       AKRAM    <NA>      ABD EL… <NA>      MD            PHYSICI…
10 150863… <NA>      JAYSON   <NA>      ROWLAND <NA>      CHT CPH       HYPNOTH…
# ℹ 3,907 more rows
# ℹ 2 more variables: ao_phone <chr>, entity <chr>
…
