Building Claims Rules – acéphale
…
rnm: split letters/numbers, categorize further

rcat: Extract urls to own column

rdesc: human readable full rule

rmsg: actually the description or explanation

rules_desc <- rules |> 
  select(rid, rnm, rcat, rdesc, rmsg) |> 
  distinct()

rules_desc

# A tibble: 1,194 × 5
     rid rnm        rcat                                 rdesc             rmsg 
   <int> <chr>      <chr>                                <chr>             <chr>
 1     1 ExpiredCPT Expired CPT                          CPT Code is [***… 4376…
 2     2 ALBCBS1    NDC Numbers                          Primary Insuranc… Alab…
 3     3 ALBCBS2    NDC Numbers                          Primary Insuranc… Alab…
 4     4 ALBCBS3    NDC Numbers                          Primary Insuranc… Add …
 5     5 ALBCBS4    Wellness visits - BMI & BP reporting Primary Insuranc… When…
 6     6 ALMCD1     Independent RHC claims               Primary Insuranc… RHC …
 7     7 ALMCD2     BMI requirement                      Primary Insuranc… Begi…
 8     8 ALMCD3     Pediatric BMI                        Primary Insuranc… Pedi…
 9     9 ALMCD4     Adult BMI                            Primary Insuranc… Adul…
10    10 ALMCD5     NDC requirement                      Primary Insuranc… The …
# ℹ 1,184 more rows

rules_desc_summary <- rules_desc |> 
  count_unique(
    rnm, 
    rcat, 
    rdesc, 
    rmsg, 
    .set_names = names(rules_desc[2:5]))

rules_desc_summary |> 
  filter(variable == "rcat")

# A tibble: 842 × 3
   variable value                                                              n
   <chr>    <chr>                                                          <int>
 1 rcat     https://www.aap.org/en-us/Documents/coding_vaccine_coding_tab…    23
 2 rcat     https://www.aetna.com/content/dam/aetna/pdfs/olu/July-2022-ol…    13
 3 rcat     https://manuals.momed.com/collections/collection_psy/print.pdf    11
 4 rcat     https://www.mdch.state.mi.us/dch-medicaid/manuals/MedicaidPro…    10
 5 rcat     CLIA Waived Test                                                   8
 6 rcat     https://www.cms.gov/medicare/icd-10/2022-icd-10-cm                 8
 7 rcat     https://www.tmhp.com/sites/default/files/microsites/provider-…     7
 8 rcat     87502,87631 - https://www.supercoder.com/webroot/upload/artic…     6
 9 rcat     VFC Vaccines                                                       6
10 rcat     https://hcpf.colorado.gov/OB-manual                                6
# ℹ 832 more rows
…
Step Components

rules_parts <- rules |> 
  select(rid, rord, rvar, ract, rval)

rules_parts |> 
  count_unique(
    rid, rord, rvar, ract, rval,
    .set_names = c("id", "step", "variable", "action", "value"))

# A tibble: 2,646 × 3
   variable value     n
   <chr>    <chr> <int>
 1 id       699       9
 2 id       1051      8
 3 id       1048      7
 4 id       177       7
 5 id       212       7
 6 id       293       7
 7 id       701       7
 8 id       730       7
 9 id       731       7
10 id       76        7
# ℹ 2,636 more rows
…
rules_parts |> 
  count_unique(rid, rord, rvar, ract, rval,
               .set_names = c("id", "step", "variable", "action", "value"))

# A tibble: 2,619 × 3
   variable value     n
   <chr>    <chr> <int>
 1 id       699       9
 2 id       1051      8
 3 id       1048      7
 4 id       177       7
 5 id       212       7
 6 id       293       7
 7 id       701       7
 8 id       730       7
 9 id       731       7
10 id       76        7
# ℹ 2,609 more rows
…
