Claims Analysis – acéphale
…
          A guide to National Provider Identifiers and the CMS standard for NPI validation.

      Author

               Andrew Allen Bruce, B.F.A., A.A.S., RHIT (AHIMA), CPC (AAPC), CPPM (AAPC)  

      Last updated

        August 6, 2024

claims

# A tibble: 49,711 × 29
   rendering  id      enc dos         year quarter dob          age dor   
   <chr>      <chr> <int> <date>     <int>   <int> <date>     <int> <date>
 1 Provider 1 PT491     1 2022-06-14  2022       2 1980-12-25    41 NA    
 2 Provider 1 PT491     1 2022-06-14  2022       2 1980-12-25    41 NA    
 3 Provider 1 PT491     1 2022-06-14  2022       2 1980-12-25    41 NA    
 4 Provider 1 PT491     1 2022-06-14  2022       2 1980-12-25    41 NA    
 5 Provider 2 PT002     3 2022-07-14  2022       3 1986-07-23    35 NA    
 6 Provider 2 PT002     4 2022-07-14  2022       3 1986-07-23    35 NA    
 7 Provider 2 PT002     4 2022-07-14  2022       3 1986-07-23    35 NA    
 8 Provider 2 PT002     4 2022-07-14  2022       3 1986-07-23    35 NA    
 9 Provider 3 PT003     1 2022-07-18  2022       3 1990-07-28    31 NA    
10 Provider 3 PT003     1 2022-07-18  2022       3 1990-07-28    31 NA    
# ℹ 49,701 more rows
# ℹ 20 more variables: dor_lag <dbl>, icd_code <chr>, hcpcs_order <int>,
#   hcpcs_code <chr>, hcpcs_desc <chr>, hcpcs_unit <int>, hcpcs_mod_1 <chr>,
#   hcpcs_mod_2 <chr>, pos <chr>, pos_name <chr>, ins_class <chr>,
#   ins_prim <chr>, ins_sec <chr>, charges <dbl>, payments <dbl>,
#   adjustments <dbl>, allowed <dbl>, adj_code_1 <chr>, adj_code_2 <chr>,
#   adj_code_3 <chr>

Find Date Range of the Claims

date_range <- timeplyr::calendar(
  timeplyr::time_completev(
    collapse::funique(claims$dos), 
    time_by = "days"), 
  name = "dos") |> 
  dplyr::select(-dplyr::matches("^[iso|epi]"))

date_range

# A tibble: 638 × 10
   dos         year quarter month month_l  week   day  yday  wday wday_l
   <date>     <int>   <int> <int> <ord>   <int> <int> <int> <int> <ord> 
 1 2022-06-14  2022       2     6 Jun        24    14   164     2 Tue   
 2 2022-06-15  2022       2     6 Jun        24    15   165     3 Wed   
 3 2022-06-16  2022       2     6 Jun        24    16   166     4 Thu   
 4 2022-06-17  2022       2     6 Jun        24    17   167     5 Fri   
 5 2022-06-18  2022       2     6 Jun        25    18   168     6 Sat   
 6 2022-06-19  2022       2     6 Jun        25    19   169     7 Sun   
 7 2022-06-20  2022       2     6 Jun        25    20   170     1 Mon   
 8 2022-06-21  2022       2     6 Jun        25    21   171     2 Tue   
 9 2022-06-22  2022       2     6 Jun        25    22   172     3 Wed   
10 2022-06-23  2022       2     6 Jun        25    23   173     4 Thu   
# ℹ 628 more rows
…
