Building Claims Rules – acéphale
…
condition

dos > "2019-01-01"

condition |> 
  rlang::parse_expr() |> 
  rlang::eval_bare()

[1] TRUE

cleaned_steps

# A tibble: 2,534 × 6
   number order variable     action            value                   condition
    <int> <int> <chr>        <chr>             <chr>                   <glue>   
 1      1     1 hcpcs        is one of         43760                   func(hcp…
 2      1     2 dos          greater than      2019-01-01              dos > "2…
 3      2     1 primary_name is                BCBS                    primary_…
 4      2     2 hcpcs        is one of         J*                      func(hcp…
 5      2     3 ndc          is not            PRESENT                 !is.na(n…
 6      3     2 ndc          is not            PRESENT                 !is.na(n…
 7      3     3 hcpcs        is one of         90476, 90477, 905*, 90… func(hcp…
 8      4     1 icd          is one of         S*                      func(icd…
 9      5     2 hcpcs        is one of, is not G0402, G0438, G0439 NO… func(hcp…
10      5     3 icd          is one of         Z68*                    func(icd…
# ℹ 2,524 more rows

cleaned_definitions

# A tibble: 1,038 × 2
   number definition                                                            
    <int> <chr>                                                                 
 1      1 @hcpcs is [43760] %AND% @dos after [01/01/2019]                       
 2      2 @primary_name is [BCBS] %AND% @hcpcs is [J*] %AND% @ndc is not [PRESE…
 3      3 @primary_name is [BCBS] %AND% @ndc is not [PRESENT] %AND% @hcpcs is o…
 4      4 @primary_name is [BCBS] %AND% @ndc is not [PRESENT] %AND% @hcpcs is o…
 5      5 @primary_name is [BCBS, BCBS AL BLUE ADVANTAGE MEDICARE REPLAC,] %AND…
 6      6 @primary_class is one of [MEDICAID, MEDICAID CMO] %AND% @pos is one o…
 7      7 @primary_class is one of [MEDICAID, MEDICAID CMO] %AND% @hcpcs is one…
 8      8 @primary_class is one of [MEDICAID, MEDICAID CMO] %AND% <<@age is les…
 9      9 @primary_class is one of [MEDICAID, MEDICAID CMO] %AND% @age is great…
10     10 @primary_class is one of [MEDICAID, MEDICAID CMO] %AND% @hcpcs is one…
# ℹ 1,028 more rows

descriptors

# A tibble: 1,038 × 4
   number identifier category                             rationale             
    <int> <chr>      <chr>                                <chr>                 
 1      1 HCPCS:EXP  Expired CPT                          43760 expired effecti…
 2      2 BCBS:AL    NDC Numbers                          Alabama BCBS requires…
 3      3 BCBS:AL    NDC Numbers                          Alabama BCBS requires…
 4      4 BCBS:AL    NDC Numbers                          Add accident date inf…
 5      5 BCBS:AL    Wellness visits - BMI & BP reporting When filing IPPE (G04…
 6      6 MCD:AL     Independent RHC claims               RHC claims are billed…
 7      7 MCD:AL     BMI requirement                      Beginning October 1, …
 8      8 MCD:AL     Pediatric BMI                        Pediatric BMI diagnos…
 9      9 MCD:AL     Adult BMI                            Adult BMI diagnosis m…
10     10 MCD:AL     NDC requirement                      The NDC number will b…
# ℹ 1,028 more rows
…
