…
|centene_df2 <- centene_df |>
  tibble::tibble () |>
  tidyr::unnest_wider (in_network_files, names_sep = "_", simplify = TRUE) |>
  select (!("in_network_files_description")) |>
  tidyr::unnest_wider (in_network_files_location, names_sep = "_", simplify = TRUE) |>
  mutate (state = toupper (str_match (allowed_amount_file.location, "ambetter-(.*)_")[, 2])) |>
  tidyr::unnest (reporting_plans) |>
  tidyr::pivot_longer (cols = dplyr::starts_with (c ("in_network", "allowed")), names_to = "info_type", values_to = "file_location", values_drop_na = TRUE)

centene_df2 |>
  group_by (plan_id, state) |>
  add_tally (sort = TRUE)|//

|# # A tibble: 2,271 × 8
# # Groups:   plan_id, state [97]
#    plan_name                                                                            plan_id_type plan_id    plan_market_type state info_type                    file_location                      n
#                                                                                                                                                                 
#  1 "Silver 70 Ambetter PPO-Health  Net Life Insurance Company "                         HIOS         99110CA040 individual       CA    in_network_files_location_1  http://centene.com/content/da…    56
#  2 "Silver 70 Ambetter PPO-Health  Net Life Insurance Company "                         HIOS         99110CA040 individual       CA    allowed_amount_file.location http://centene.com/content/da…    56
#  3 "Gold 80 Ambetter PPO + Adult Dental & Vision-Health  Net Life Insurance Company "   HIOS         99110CA040 individual       CA    in_network_files_location_1  http://centene.com/content/da…    56
#  4 "Gold 80 Ambetter PPO + Adult Dental & Vision-Health  Net Life Insurance Company "   HIOS         99110CA040 individual       CA    allowed_amount_file.location http://centene.com/content/da…    56
#  5 "Bronze 60 Ambetter PPO + Adult Dental & Vision-Health  Net Life Insurance Company " HIOS         99110CA040 individual       CA    in_network_files_location_1  http://centene.com/content/da…    56
#  6 "Bronze 60 Ambetter PPO + Adult Dental & Vision-Health  Net Life Insurance Company " HIOS         99110CA040 individual       CA    allowed_amount_file.location http://centene.com/content/da…    56
#  7 "Minimum Coverage Ambetter PPO-Health  Net Life Insurance Company "                  HIOS         99110CA040 individual       CA    in_network_files_location_1  http://centene.com/content/da…    56
#  8 "Minimum Coverage Ambetter PPO-Health  Net Life Insurance Company "                  HIOS         99110CA040 individual       CA    allowed_amount_file.location http://centene.com/content/da…    56
#  9 "Silver 87 Ambetter PPO-Health  Net Life Insurance Company "                         HIOS         99110CA040 individual       CA    in_network_files_location_1  http://centene.com/content/da…    56
# 10 "Silver 87 Ambetter PPO-Health  Net Life Insurance Company "                         HIOS         99110CA040 individual       CA    allowed_amount_file.location http://centene.com/content/da…    56
# # … with 2,261 more rows
# # ℹ Use `print(n = ...)` to see more rows|//

|# 713 Unique Plan Names
centene_df2 |> distinct (plan_name)|//

|# # A tibble: 713 × 1
#    plan_name                                                                                  
#                                                                                          
#  1 "Minimum Coverage Ambetter HSP-Health Net of California Inc"                               
#  2 "Minimum Coverage Ambetter EPO + Adult Dental & Vision-Health  Net Life Insurance Company "
#  3 "Silver 70 Ambetter EPO-Health  Net Life Insurance Company "                               
#  4 "Silver 70 Ambetter PPO-Health  Net Life Insurance Company "                               
#  5 "Bronze 60 Ambetter HSP AI-AN-Health Net of California Inc"                                
#  6 "Platinum 90 Ambetter HMO + Adult Dental & Vision-Health Net of California Inc"            
#  7 "Gold 80 Ambetter PPO + Adult Dental & Vision-Health  Net Life Insurance Company "         
#  8 "Minimum Coverage Ambetter EPO-Health  Net Life Insurance Company "                        
#  9 "Bronze 60 Ambetter PPO + Adult Dental & Vision-Health  Net Life Insurance Company "       
# 10 "Silver 70 Ambetter HMO-Health Net of California Inc"                                      
# # … with 703 more rows
# # ℹ Use `print(n = ...)` to see more rows|//

|# 97 Unique Plan Ids
centene_df2 |> distinct (plan_id)|//

|# # A tibble: 97 × 1
#    plan_id   
#         
#  1 67138CA063
#  2 99110CA035
#  3 99110CA034
#  4 99110CA040
#  5 67138CA062
#  6 67138CA052
#  7 99110CA021
#  8 67138CA064
#  9 61604LA002
# 10 61604LA001
# # … with 87 more rows
# # ℹ Use `print(n = ...)` to see more rows|//

|# 62 Unique JSON Files
centene_df2 |> distinct (file_location)|//

|# # A tibble: 62 × 1
#    file_location                                                                                                                                      
#                                                                                                                                                  
#  1 http://centene.com/content/dam/centene/Centene%20Corporate/json/DOCUMENT/2022-06-29_centene-management-company-llc_ambetter-ca_in-network.json     
#  2 http://centene.com/content/dam/centene/Centene%20Corporate/json/DOCUMENT/2022-06-29_centene-management-company-llc_ambetter-ca_allowed-amounts.json
#  3 http://centene.com/content/dam/centene/Centene%20Corporate/json/DOCUMENT/2022-06-29_centene-management-company-llc_ambetter-la_in-network.json     
#  4 https://tic2.hothprod.magellanhealth.com/CTLHC/INN/CTLHC_in-network-file-1                                                                         
#  5 http://centene.com/content/dam/centene/Centene%20Corporate/json/DOCUMENT/2022-06-29_centene-management-company-llc_ambetter-la_allowed-amounts.json
#  6 http://centene.com/content/dam/centene/Centene%20Corporate/json/DOCUMENT/2022-06-29_centene-management-company-llc_ambetter-ky_in-network.json     
#  7 http://centene.com/content/dam/centene/Centene%20Corporate/json/DOCUMENT/2022-06-29_centene-management-company-llc_ambetter-ky_allowed-amounts.json
#  8 http://centene.com/content/dam/centene/Centene%20Corporate/json/DOCUMENT/2022-06-29_centene-management-company-llc_ambetter-ga_in-network.json     
#  9 https://tic2.hothprod.magellanhealth.com/CTPCH/INN/CTPCH_in-network-file-1                                                                         
# 10 http://centene.com/content/dam/centene/Centene%20Corporate/json/DOCUMENT/2022-06-29_centene-management-company-llc_ambetter-ga_allowed-amounts.json
# # … with 52 more rows
# # ℹ Use `print(n = ...)` to see more rows|//
…
