…
|#    rr_pass clmphr_pass Count Prop
# 1:    TRUE        TRUE    35 87.5
# 2:    TRUE       FALSE     5 12.5|//

|bill_Mcintyre <- billdata_cross |>
  filter (biller_last == "Mcintyre") |>
  select (!(biller_last)) |>
  group_split. (period, client, .keep = FALSE, .named = TRUE)|//

      WEEKLY

|bill_Mcintyre$week_All |>
  select (!c (nmon:dqtr))|//

|# # A tidytable: 52 × 10
#    date         hrs claim reject rejrate clmphr  days clmpday rr_pass clmphr_pass
#                               
#  1 2021-01-04  40    1400     33 0.0236    35    5       280  TRUE    TRUE       
#  2 2021-01-11  40    1335     22 0.0165    33.4  5       267  TRUE    FALSE      
#  3 2021-01-18  40    1498     27 0.0180    37.4  5       300. TRUE    TRUE       
#  4 2021-01-25  40    1256     22 0.0175    31.4  5       251. TRUE    FALSE      
#  5 2021-02-01  32.2  1588     13 0.00819   49.3  4.03    395. TRUE    TRUE       
#  6 2021-02-08  37    1356     24 0.0177    36.6  4.62    293. TRUE    TRUE       
#  7 2021-02-15  37.8  1281     34 0.0265    33.9  4.72    271. TRUE    FALSE      
#  8 2021-02-22  38.1  1228     25 0.0204    32.3  4.76    258. TRUE    FALSE      
#  9 2021-03-01  37.9  1428     28 0.0196    37.6  4.74    301. TRUE    TRUE       
# 10 2021-03-08  38.3  1472     31 0.0211    38.4  4.79    307. TRUE    TRUE       
# # … with 42 more rows
# # ℹ Use `print(n = ...)` to see more rows|//
…
