…
  Relationship Visualizations

|refer2prov <- google_aging |>
  dplyr::group_by (referring_phys, provider) |>
  dplyr::summarise (count = n ()) |>
  dplyr::arrange (desc (count)) |>
  ungroup () |>
  rename (from = referring_phys, to = provider, weight = count)
refer2prov|//

|# # A tibble: 65 × 3
#    from        to      weight
#               
#  1 Ramirez     James      177
#  2 Ramirez     Forrest    131
#  3 Ramirez     Timothy    117
#  4 Blankenship James       76
#  5 Burroughs   James       75
#  6 Ramirez     Bailey      70
#  7 Frier       James       69
#  8 Page        James       66
#  9 Burroughs   Forrest     65
# 10 Ramirez     Allen       64
# # … with 55 more rows
# # ℹ Use `print(n = ...)` to see more rows|//

|prov2payer <- google_aging |>
  dplyr::group_by (provider, payer) |>
  dplyr::summarise (count = n ()) |>
  dplyr::arrange (desc (count)) |>
  ungroup () |>
  rename (from = provider, to = payer, weight = count)
prov2payer|//

|# # A tibble: 30 × 3
#    from    to         weight
#              
#  1 James   Patient       308
#  2 Forrest Patient       268
#  3 Timothy Patient       206
#  4 James   Blue Cross    170
#  5 James   Medicare      156
#  6 Forrest Blue Cross    133
#  7 Bailey  Patient       128
#  8 Forrest Medicare      126
#  9 Allen   Patient       113
# 10 Timothy Blue Cross    113
# # … with 20 more rows
# # ℹ Use `print(n = ...)` to see more rows|//

|ref2prov2pay <- rbind (refer2prov, prov2payer)
ref2prov2pay|//

|# # A tibble: 95 × 3
#    from        to      weight
#               
#  1 Ramirez     James      177
#  2 Ramirez     Forrest    131
#  3 Ramirez     Timothy    117
#  4 Blankenship James       76
#  5 Burroughs   James       75
#  6 Ramirez     Bailey      70
#  7 Frier       James       69
#  8 Page        James       66
#  9 Burroughs   Forrest     65
# 10 Ramirez     Allen       64
# # … with 85 more rows
# # ℹ Use `print(n = ...)` to see more rows|//
…
