…
|tfl_vec <- tfl_vec |>
  tidyr::pivot_longer (
    everything (),
    names_to = "remove",
    values_to = "insurance"
  )

tfl_vec|//

|# A tibble: 86 × 2
   remove insurance                                                                        
                                                                                 
 1 column "AARP\t15 Month from Date of Service (DOS)"                                      
 2 NA.    "Advantage Care\t6 Month"                                                        
 3 NA..1  "Advantage Freedom\t2 Years from DOS"                                            
 4 NA..2  "Aetna\t120 Days from DOS"                                                       
 5 NA..3  "Ameri health ADM Local 360\t1 Year from DOS"                                    
 6 NA..4  "American Life and Health\t12 Month"                                             
 7 NA..5  "American Progressive\t1 Year"                                                   
 8 NA..6  "Amerigroup\t90 Days for Participating Providers/12 Months for Non-PAR Providers"
 9 NA..7  "Amerihealth ADM TPA\t1 Year"                                                    
10 NA..8  "AmeriHealth NJ & DE\t60 Days"                                                   
# … with 76 more rows|//
…
tfl_vec|//

|# A tibble: 86 × 2
   company                    limit                                                              
                                                                                       
 1 AARP                       15 Month from Date of Service (DOS)                                
 2 Advantage Care             6 Month                                                            
 3 Advantage Freedom          2 Years from DOS                                                   
 4 Aetna                      120 Days from DOS                                                  
 5 Ameri health ADM Local 360 1 Year from DOS                                                    
 6 American Life and Health   12 Month                                                           
 7 American Progressive       1 Year                                                             
 8 Amerigroup                 90 Days for Participating Providers/12 Months for Non-PAR Providers
 9 Amerihealth ADM TPA        1 Year                                                             
10 AmeriHealth NJ & DE        60 Days                                                            
# … with 76 more rows|//
…
