Taxonomy Codes – acéphale
…
xwalk

# A tibble: 559 × 7
     .id taxonomy_code taxonomy_type     specialty_code specialty_type type_note
   <int> <chr>         <chr>             <chr>          <chr>          <chr>    
 1     1 208D00000X    Allopathic & Ost… 01             Physician/Gen… <NA>     
 2     2 208600000X    Allopathic & Ost… 02             Physician/Gen… <NA>     
 3     3 2086H0002X    Allopathic & Ost… 02             Physician/Gen… <NA>     
 4     4 2086S0120X    Allopathic & Ost… 02             Physician/Gen… <NA>     
 5     5 2086S0122X    Allopathic & Ost… 02             Physician/Gen… <NA>     
 6     6 2086S0105X    Allopathic & Ost… 02             Physician/Gen… <NA>     
 7     7 2086S0102X    Allopathic & Ost… 02             Physician/Gen… <NA>     
 8     8 2086X0206X    Allopathic & Ost… 02             Physician/Gen… <NA>     
 9     9 2086S0127X    Allopathic & Ost… 02             Physician/Gen… <NA>     
10    10 2086S0129X    Allopathic & Ost… 02             Physician/Gen… <NA>     
# ℹ 549 more rows
# ℹ 1 more variable: code_note <chr>
…
taxonomy

# A tibble: 552 × 8
     .id taxonomy_code tax1                        tax2  tax3  tax4  tax5  tax6 
   <int> <chr>         <chr>                       <chr> <chr> <chr> <chr> <chr>
 1     1 208D00000X    Allopathic & Osteopathic P… Gene… <NA>  <NA>  <NA>  <NA> 
 2     2 208600000X    Allopathic & Osteopathic P… Surg… <NA>  <NA>  <NA>  <NA> 
 3     3 2086H0002X    Allopathic & Osteopathic P… Surg… Hosp… <NA>  <NA>  <NA> 
 4     4 2086S0120X    Allopathic & Osteopathic P… Surg… Pedi… <NA>  <NA>  <NA> 
 5     5 2086S0122X    Allopathic & Osteopathic P… Surg… Plas… <NA>  <NA>  <NA> 
 6     6 2086S0105X    Allopathic & Osteopathic P… Surg… Surg… <NA>  <NA>  <NA> 
 7     7 2086S0102X    Allopathic & Osteopathic P… Surg… Surg… <NA>  <NA>  <NA> 
 8     8 2086X0206X    Allopathic & Osteopathic P… Surg… Surg… <NA>  <NA>  <NA> 
 9     9 2086S0127X    Allopathic & Osteopathic P… Surg… Trau… <NA>  <NA>  <NA> 
10    10 2086S0129X    Allopathic & Osteopathic P… Surg… Vasc… <NA>  <NA>  <NA> 
# ℹ 542 more rows

taxonomy |> 
  hacksaw::count_split(
    tax1,
    tax2,
    tax3,
    tax4,
    tax5,
    tax6
  )

[[1]]
# A tibble: 28 × 2
   tax1                                                           n
   <chr>                                                      <int>
 1 Allopathic & Osteopathic Physicians                          289
 2 Physician Assistants & Advanced Practice Nursing Providers    58
 3 Suppliers                                                     40
 4 Respiratory                                                   32
 5 Behavioral Health & Social Service Providers                  26
 6 Hospitals                                                     18
 7 Ambulatory Health Care Facilities                             15
 8 Chiropractic Providers                                        12
 9 Dietary & Nutritional Service Providers                        9
10 Podiatric Medicine & Surgery Service Providers                 8
# ℹ 18 more rows

[[2]]
# A tibble: 97 × 2
   tax2                          n
   <chr>                     <int>
 1 Internal Medicine            42
 2 Clinical Nurse Specialist    34
 3 Developmental                31
 4 Pediatrics                   26
 5 Pharmacy                     25
 6 Psychiatry & Neurology       25
 7 Psychologist                 23
 8 Surgery                      20
 9 Nurse Practitioner           18
10 Orthopedic Surgery           17
# ℹ 87 more rows

[[3]]
# A tibble: 249 × 2
   tax3                                               n
   <chr>                                          <int>
 1 <NA>                                              97
 2 Rehabilitative & Restorative Service Providers    23
 3 Sports Medicine                                   20
 4 Hospice and Palliative Medicine                   15
 5 Center                                            10
 6 Sleep Medicine                                    10
 7 Registered                                         9
 8 Addiction Medicine                                 8
 9 Psychiatric                                        8
10 Critical Care Medicine                             6
# ℹ 239 more rows

[[4]]
# A tibble: 42 × 2
   tax4                                  n
   <chr>                             <int>
 1 <NA>                                463
 2 Occupational Therapist               13
 3 Physical Therapist                   10
 4 Mental Health                         9
 5 Nutrition                             8
 6 and Restorative Service Providers     6
 7 Rehabilitation                        4
 8 Critical Care                         2
 9 Dentist                               2
10 Multi-Specialty                       2
# ℹ 32 more rows

[[5]]
# A tibble: 39 × 2
   tax5                n
   <chr>           <int>
 1 <NA>              507
 2 Anaplastologist     2
 3 Ergonomics          2
 4 Hand                2
 5 Human Factors       2
 6 Orthotist           2
 7 Pediatrics          2
 8 Prosthetist         2
 9 & Metabolism        1
10 Adult               1
# ℹ 29 more rows
…
specialty |> 
  dplyr::mutate(.id = as.character(.id)) |> 
  tidyr::nest(data = .id) |> 
  dplyr::mutate(.id = map_chr(data, function(x) glue::glue("{delist(x)}") |> glue::glue_collapse(sep = ", ")),
                data = NULL) |> 
  tidyr::separate_longer_delim(
    cols = specialty_type, 
    delim = stringr::fixed("/")) |> 
  dplyr::mutate(specialty_type = str_squish(specialty_type))

# A tibble: 221 × 5
   specialty_code specialty_type   note  note_description .id                   
   <chr>          <chr>            <chr> <chr>            <chr>                 
 1 01             Physician        <NA>  <NA>             1                     
 2 01             General Practice <NA>  <NA>             1                     
 3 02             Physician        <NA>  <NA>             2, 3, 4, 5, 6, 7, 8, …
 4 02             General Surgery  <NA>  <NA>             2, 3, 4, 5, 6, 7, 8, …
 5 03             Physician        <NA>  <NA>             27, 28, 29            
 6 03             Allergy          <NA>  <NA>             27, 28, 29            
 7 03             Immunology       <NA>  <NA>             27, 28, 29            
 8 04             Physician        <NA>  <NA>             30, 31, 32, 33, 34, 3…
 9 04             Otolaryngology   <NA>  <NA>             30, 31, 32, 33, 34, 3…
10 05             Physician        <NA>  <NA>             38, 39, 40, 41, 42, 43
# ℹ 211 more rows
…
